Parte 1 - Hello World/Procesador/sim/unicycle_tb.vcd
$date
	Thu May 23 18:36:37 2024
$end
$version
	Icarus Verilog
$end
$timescale
	1ps
$end
$scope module unicycle_tb $end
$var parameter 32 ! W $end
$var reg 1 " clk $end
$var reg 1 # rst $end
$scope module dut $end
$var wire 1 " clk $end
$var wire 1 # rst $end
$var wire 1 $ salida_and $end
$var wire 1 % select_mux_sumador $end
$var wire 1 & zero $end
$var wire 32 ' write_data [31:0] $end
$var wire 32 ( sumando_direccion [31:0] $end
$var wire 1 ) salto_incon $end
$var wire 1 * salto $end
$var wire 32 + pc_out [31:0] $end
$var wire 32 , pc_inm_next [31:0] $end
$var wire 32 - pc_in [31:0] $end
$var wire 32 . instruction [31:0] $end
$var wire 32 / inmediato [31:0] $end
$var wire 1 0 flag_direccion $end
$var wire 32 1 data2 [31:0] $end
$var wire 32 2 data1 [31:0] $end
$var wire 2 3 comparador_code [1:0] $end
$var wire 4 4 alu_inst [3:0] $end
$var wire 32 5 alu_in [31:0] $end
$var wire 32 6 Result [31:0] $end
$var wire 1 7 RegWrite $end
$var wire 32 8 Read_data [31:0] $end
$var wire 1 9 MemWrite $end
$var wire 2 : MemReg [1:0] $end
$var wire 1 ; MemRead $end
$var wire 1 < Branch $end
$var wire 32 = ALU_result [31:0] $end
$var wire 1 > ALUSrc $end
$var wire 2 ? ALUOp [1:0] $end
$var parameter 32 @ W $end
$var reg 32 A cuatro [31:0] $end
$scope module inst_memory $end
$var wire 32 B instruction [31:0] $end
$var wire 32 C address [31:0] $end
$var parameter 32 D ADDRESS_WIDTH $end
$var parameter 32 E DATA_WIDTH $end
$var parameter 32 F MEM_SIZE $end
$upscope $end
$scope module unidad_alu $end
$var wire 32 G source_2 [31:0] $end
$var wire 4 H op [3:0] $end
$var wire 32 I data_rs1 [31:0] $end
$var parameter 32 J DATA_WIDTH $end
$var reg 32 K ALU_result [31:0] $end
$var reg 1 & zero $end
$upscope $end
$scope module unidad_alu_control $end
$var wire 32 L instruccion [31:0] $end
$var wire 1 M isRinst $end
$var wire 3 N field_3 [2:0] $end
$var wire 1 O I_30 $end
$var wire 2 P ALU_OP [1:0] $end
$var parameter 32 Q width_instruc $end
$var reg 4 R alu_inst [3:0] $end
$scope begin alu_case $end
$upscope $end
$upscope $end
$scope module unidad_comparador_dut $end
$var wire 32 S rs2 [31:0] $end
$var wire 32 T rs1 [31:0] $end
$var reg 2 U comparador_code [1:0] $end
$upscope $end
$scope module unidad_control_salto_dut $end
$var wire 2 V comparador_code [1:0] $end
$var wire 32 W instruccion [31:0] $end
$var wire 7 X opcode [6:0] $end
$var wire 3 Y field_3 [2:0] $end
$var parameter 32 Z W $end
$var reg 1 * salto $end
$upscope $end
$scope module unidad_data_memory $end
$var wire 32 [ address [31:0] $end
$var wire 1 " clk $end
$var wire 1 # rst $end
$var wire 32 \ write_data [31:0] $end
$var wire 32 ] read_data [31:0] $end
$var wire 1 9 MemWrite $end
$var wire 1 ; MemRead $end
$var parameter 32 ^ DATA_WIDTH $end
$var parameter 32 _ N $end
$var parameter 32 ` memzise $end
$upscope $end
$scope module unidad_imm_gen $end
$var wire 32 a immediate_gen [31:0] $end
$var wire 32 b inst [31:0] $end
$var wire 3 c field_3 [2:0] $end
$var parameter 32 d DATA_WIDTH $end
$var reg 12 e immediate [11:0] $end
$var reg 20 f immediate_jal [19:0] $end
$var reg 32 g inmediato [31:0] $end
$var reg 32 h inmediato_jal [31:0] $end
$upscope $end
$scope module unidad_main_control $end
$var wire 7 i opcode [6:0] $end
$var parameter 32 j width_instruc $end
$var reg 1 > ALUSrc $end
$var reg 2 k ALU_OP [1:0] $end
$var reg 1 < Branch $end
$var reg 1 ; Mem_read $end
$var reg 1 9 Mem_write $end
$var reg 2 l Memto_Reg [1:0] $end
$var reg 1 7 Reg_Write $end
$var reg 1 0 flag_direccion $end
$var reg 1 ) salto_incon $end
$upscope $end
$scope module unidad_mux_salida_memoria $end
$var wire 32 m entrada1 [31:0] $end
$var wire 32 n entrada2 [31:0] $end
$var wire 2 o select [1:0] $end
$var wire 32 p entrada3 [31:0] $end
$var parameter 32 q W $end
$var reg 32 r salida_mux [31:0] $end
$upscope $end
$scope module unidad_mux_salida_registro $end
$var wire 32 s entrada2 [31:0] $end
$var wire 1 > select $end
$var wire 32 t entrada1 [31:0] $end
$var parameter 32 u W $end
$var reg 32 v salida_mux [31:0] $end
$upscope $end
$scope module unidad_mux_salida_sumador $end
$var wire 1 % select $end
$var wire 32 w entrada2 [31:0] $end
$var wire 32 x entrada1 [31:0] $end
$var parameter 32 y W $end
$var reg 32 z salida_mux [31:0] $end
$upscope $end
$scope module unidad_mux_sumador_direccion_dut $end
$var wire 1 0 select $end
$var wire 32 { entrada2 [31:0] $end
$var wire 32 | entrada1 [31:0] $end
$var parameter 32 } W $end
$var reg 32 ~ salida_mux [31:0] $end
$upscope $end
$scope module unidad_pc $end
$var wire 32 !" PC_next [31:0] $end
$var wire 1 " clk $end
$var wire 1 # rst $end
$var parameter 32 "" ADDRESS_WIDTH $end
$var parameter 32 #" MEM_SIZE $end
$var reg 32 $" inst_address [31:0] $end
$upscope $end
$scope module unidad_registro $end
$var wire 1 " clk $end
$var wire 32 %" data_in [31:0] $end
$var wire 5 &" rd [4:0] $end
$var wire 5 '" rs1 [4:0] $end
$var wire 5 (" rs2 [4:0] $end
$var wire 1 # rst $end
$var wire 1 7 we $end
$var parameter 32 )" N $end
$var parameter 32 *" W $end
$var reg 32 +" data_rs1 [31:0] $end
$var reg 32 ," data_rs2 [31:0] $end
$scope begin read $end
$upscope $end
$scope begin write $end
$scope begin $ivl_foreach0 $end
$var integer 32 -" i [31:0] $end
$upscope $end
$upscope $end
$upscope $end
$scope module unidad_sumador $end
$var wire 32 ." inmediato [31:0] $end
$var wire 32 /" pc_actual [31:0] $end
$var wire 32 0" Result [31:0] $end
$var parameter 32 1" W $end
$upscope $end
$scope module unidad_sumador_PC_4 $end
$var wire 32 2" inmediato [31:0] $end
$var wire 32 3" pc_actual [31:0] $end
$var wire 32 4" Result [31:0] $end
$var parameter 32 5" W $end
$upscope $end
$upscope $end
$upscope $end
$enddefinitions $end
$comment Show the parameter values. $end
$dumpall
b100000 5"
b100000 1"
b100000 *"
b101 )"
b100000000 #"
b100000 ""
b100000 }
b100000 y
b100000 u
b100000 q
b111 j
b100000 d
b100000 `
b1000 _
b100000 ^
b100000 Z
b100000 Q
b100000 J
b100101 F
b100000 E
b100000 D
b100000 @
b100000 !
$end
#0
$dumpvars
bx 4"
bx 3"
b100 2"
bx 0"
bx /"
bx ."
b0 -"
b0 ,"
b0 +"
bx ("
bx '"
bx &"
b0 %"
bx $"
bx !"
bx ~
bx |
b0 {
bx z
bx x
bx w
b0 v
b0 t
bx s
b0 r
bx p
b0 o
b0 n
b0 m
b0 l
b0 k
bx i
bx h
bx g
bx f
bx e
bx c
bx b
bx a
b0 ]
b0 \
b0 [
bx Y
bx X
bx W
b1 V
b1 U
b0 T
b0 S
b10 R
b0 P
xO
bx N
xM
bx L
b0 K
b0 I
b10 H
b0 G
bx C
bx B
b100 A
b0 ?
0>
b0 =
0<
0;
b0 :
09
b0 8
07
bx 6
b0 5
b10 4
b1 3
b0 2
b0 1
00
bx /
bx .
bx -
bx ,
bx +
0*
0)
bx (
b0 '
1&
0%
0$
1#
0"
$end
#10000
0&
b10 '
b10 r
b10 %"
b10 =
b10 K
b10 [
b10 m
b10 5
b10 G
b10 v
b10 6
b10 w
b10 0"
b10 /
b10 a
b10 s
b10 ."
17
1>
b10 ?
b10 P
b10 k
0M
b0 N
0O
b0 Y
b10011 X
b0 h
b10 g
b0 f
b10 e
b0 c
b101 &"
b10 ("
b0 '"
b10011 i
b100 -
b100 z
b100 !"
b1000000000001010010011 .
b1000000000001010010011 B
b1000000000001010010011 L
b1000000000001010010011 W
b1000000000001010010011 b
b0 (
b0 ~
b0 /"
b100 ,
b100 p
b100 x
b100 4"
b0 +
b0 C
b0 |
b0 $"
b0 3"
b100000 -"
1"
#12000
0#
#20000
0"
#30000
b10000000000000 '
b10000000000000 r
b10000000000000 %"
b1100 5
b1100 G
b1100 v
b10000000000000 =
b10000000000000 K
b10000000000000 [
b10000000000000 m
b10 3
b10 U
b10 V
b1001 4
b1001 H
b1001 R
b1100 /
b1100 a
b1100 s
b1100 ."
b10 2
b10 I
b10 T
b10 {
b10 +"
b1 N
b1 Y
b1100 g
b1100 e
b1 c
b1100 ("
b101 '"
b1000 -
b1000 z
b1000 !"
b110000101001001010010011 .
b110000101001001010010011 B
b110000101001001010010011 L
b110000101001001010010011 W
b110000101001001010010011 b
b10000 6
b10000 w
b10000 0"
b100 (
b100 ~
b100 /"
b1000 ,
b1000 p
b1000 x
b1000 4"
b100 +
b100 C
b100 |
b100 $"
b100 3"
1"
#40000
0"
#50000
b11000 5
b11000 G
b11000 v
b10000000011000 '
b10000000011000 r
b10000000011000 %"
b10 4
b10 H
b10 R
b11000 /
b11000 a
b11000 s
b11000 ."
b10000000011000 =
b10000000011000 K
b10000000011000 [
b10000000011000 m
b0 N
b0 Y
b11000 g
b11000 e
b0 c
b11000 ("
b10000000000000 2
b10000000000000 I
b10000000000000 T
b10000000000000 {
b10000000000000 +"
b1100 -
b1100 z
b1100 !"
b1100000101000001010010011 .
b1100000101000001010010011 B
b1100000101000001010010011 L
b1100000101000001010010011 W
b1100000101000001010010011 b
b100000 6
b100000 w
b100000 0"
b1000 (
b1000 ~
b1000 /"
b1100 ,
b1100 p
b1100 x
b1100 4"
b1000 +
b1000 C
b1000 |
b1000 $"
b1000 3"
1"
#60000
0"
#70000
b10 5
b10 G
b10 v
b1 3
b1 U
b1 V
b10 '
b10 r
b10 %"
b10 /
b10 a
b10 s
b10 ."
b10 =
b10 K
b10 [
b10 m
b10 g
b10 e
b110 &"
b10 ("
b0 '"
b0 2
b0 I
b0 T
b0 {
b0 +"
b10000 -
b10000 z
b10000 !"
b1000000000001100010011 .
b1000000000001100010011 B
b1000000000001100010011 L
b1000000000001100010011 W
b1000000000001100010011 b
b1110 6
b1110 w
b1110 0"
b1100 (
b1100 ~
b1100 /"
b10000 ,
b10000 p
b10000 x
b10000 4"
b1100 +
b1100 C
b1100 |
b1100 $"
b1100 3"
1"
#80000
0"
#90000
b10000000000000 '
b10000000000000 r
b10000000000000 %"
b1100 5
b1100 G
b1100 v
b10000000000000 =
b10000000000000 K
b10000000000000 [
b10000000000000 m
b10 3
b10 U
b10 V
b1001 4
b1001 H
b1001 R
b1100 /
b1100 a
b1100 s
b1100 ."
b10 2
b10 I
b10 T
b10 {
b10 +"
b1 N
b1 Y
b1100 g
b1100 e
b1 c
b1100 ("
b110 '"
b10100 -
b10100 z
b10100 !"
b110000110001001100010011 .
b110000110001001100010011 B
b110000110001001100010011 L
b110000110001001100010011 W
b110000110001001100010011 b
b11100 6
b11100 w
b11100 0"
b10000 (
b10000 ~
b10000 /"
b10100 ,
b10100 p
b10100 x
b10100 4"
b10000 +
b10000 C
b10000 |
b10000 $"
b10000 3"
1"
#100000
0"
#110000
b10000 5
b10000 G
b10000 v
b10000000010000 '
b10000000010000 r
b10000000010000 %"
b10 4
b10 H
b10 R
b10000 /
b10000 a
b10000 s
b10000 ."
b10000000010000 =
b10000000010000 K
b10000000010000 [
b10000000010000 m
b0 N
b0 Y
b10000 g
b10000 e
b0 c
b10000 ("
b10000000000000 2
b10000000000000 I
b10000000000000 T
b10000000000000 {
b10000000000000 +"
b11000 -
b11000 z
b11000 !"
b1000000110000001100010011 .
b1000000110000001100010011 B
b1000000110000001100010011 L
b1000000110000001100010011 W
b1000000110000001100010011 b
b100100 6
b100100 w
b100100 0"
b10100 (
b10100 ~
b10100 /"
b11000 ,
b11000 p
b11000 x
b11000 4"
b10100 +
b10100 C
b10100 |
b10100 $"
b10100 3"
1"
#120000
0"
#130000
b10 5
b10 G
b10 v
b1 3
b1 U
b1 V
b10 '
b10 r
b10 %"
b10 /
b10 a
b10 s
b10 ."
b10 =
b10 K
b10 [
b10 m
b10 g
b10 e
b111 &"
b10 ("
b0 '"
b0 2
b0 I
b0 T
b0 {
b0 +"
b11100 -
b11100 z
b11100 !"
b1000000000001110010011 .
b1000000000001110010011 B
b1000000000001110010011 L
b1000000000001110010011 W
b1000000000001110010011 b
b11010 6
b11010 w
b11010 0"
b11000 (
b11000 ~
b11000 /"
b11100 ,
b11100 p
b11100 x
b11100 4"
b11000 +
b11000 C
b11000 |
b11000 $"
b11000 3"
1"
#140000
0"
#150000
b10000000000000 '
b10000000000000 r
b10000000000000 %"
b1100 5
b1100 G
b1100 v
b10000000000000 =
b10000000000000 K
b10000000000000 [
b10000000000000 m
b10 3
b10 U
b10 V
b1001 4
b1001 H
b1001 R
b1100 /
b1100 a
b1100 s
b1100 ."
b10 2
b10 I
b10 T
b10 {
b10 +"
b1 N
b1 Y
b1100 g
b1100 e
b1 c
b1100 ("
b111 '"
b100000 -
b100000 z
b100000 !"
b110000111001001110010011 .
b110000111001001110010011 B
b110000111001001110010011 L
b110000111001001110010011 W
b110000111001001110010011 b
b101000 6
b101000 w
b101000 0"
b11100 (
b11100 ~
b11100 /"
b100000 ,
b100000 p
b100000 x
b100000 4"
b11100 +
b11100 C
b11100 |
b11100 $"
b11100 3"
1"
#160000
0"
#170000
b11100 5
b11100 G
b11100 v
b10000000011100 '
b10000000011100 r
b10000000011100 %"
b10 4
b10 H
b10 R
b11100 /
b11100 a
b11100 s
b11100 ."
b10000000011100 =
b10000000011100 K
b10000000011100 [
b10000000011100 m
b0 N
b0 Y
b11100 g
b11100 e
b0 c
b11100 ("
b10000000000000 2
b10000000000000 I
b10000000000000 T
b10000000000000 {
b10000000000000 +"
b100100 -
b100100 z
b100100 !"
b1110000111000001110010011 .
b1110000111000001110010011 B
b1110000111000001110010011 L
b1110000111000001110010011 W
b1110000111000001110010011 b
b111100 6
b111100 w
b111100 0"
b100000 (
b100000 ~
b100000 /"
b100100 ,
b100100 p
b100100 x
b100100 4"
b100000 +
b100000 C
b100000 |
b100000 $"
b100000 3"
1"
#180000
0"
#190000
b1 5
b1 G
b1 v
b1 3
b1 U
b1 V
b1 '
b1 r
b1 %"
b1 /
b1 a
b1 s
b1 ."
b1 =
b1 K
b1 [
b1 m
b1 g
b1 e
b1011 &"
b1 ("
b0 '"
b0 2
b0 I
b0 T
b0 {
b0 +"
b101000 -
b101000 z
b101000 !"
b100000000010110010011 .
b100000000010110010011 B
b100000000010110010011 L
b100000000010110010011 W
b100000000010110010011 b
b100101 6
b100101 w
b100101 0"
b100100 (
b100100 ~
b100100 /"
b101000 ,
b101000 p
b101000 x
b101000 4"
b100100 +
b100100 C
b100100 |
b100100 $"
b100100 3"
1"
#200000
0"
#210000
b1001000 '
b1001000 r
b1001000 %"
b1001000 =
b1001000 K
b1001000 [
b1001000 m
b1001000 5
b1001000 G
b1001000 v
b1001000 /
b1001000 a
b1001000 s
b1001000 ."
b1001000 g
b1001000 e
b1010 &"
b1000 ("
b101100 -
b101100 z
b101100 !"
b100100000000000010100010011 .
b100100000000000010100010011 B
b100100000000000010100010011 L
b100100000000000010100010011 W
b100100000000000010100010011 b
b1110000 6
b1110000 w
b1110000 0"
b101000 (
b101000 ~
b101000 /"
b101100 ,
b101100 p
b101100 x
b101100 4"
b101000 +
b101000 C
b101000 |
b101000 $"
b101000 3"
1"
#220000
0"
#230000
1&
b0 =
b0 K
b0 [
b0 m
1%
b110000 '
b110000 r
b110000 %"
b0 5
b0 G
b0 v
b110 4
b110 H
b110 R
b1010100 /
b1010100 a
b1010100 s
b1010100 ."
1)
1<
b10 :
b10 l
b10 o
0>
b1 ?
b1 P
b1 k
1M
b1101111 X
b1010100 h
b0 g
b0 e
b1010100 f
b1 &"
b10100 ("
b1101111 i
b10000000 -
b10000000 z
b10000000 !"
b101010000000000000011101111 .
b101010000000000000011101111 B
b101010000000000000011101111 L
b101010000000000000011101111 W
b101010000000000000011101111 b
b10000000 6
b10000000 w
b10000000 0"
b101100 (
b101100 ~
b101100 /"
b110000 ,
b110000 p
b110000 x
b110000 4"
b101100 +
b101100 C
b101100 |
b101100 $"
b101100 3"
1"
#240000
0"
#250000
0&
b10000000011000 =
b10000000011000 K
b10000000011000 [
b10000000011000 m
b10 3
b10 U
b10 V
0%
b10 4
b10 H
b10 R
b0 /
b0 a
b0 s
b0 ."
b1001000 1
b1001000 S
b1001000 \
b1001000 t
b1001000 ,"
b10000000011000 2
b10000000011000 I
b10000000011000 T
b10000000011000 {
b10000000011000 +"
0)
0<
19
07
b0 :
b0 l
b0 o
1>
b0 ?
b0 P
b0 k
b10 N
b10 Y
b100011 X
b0 h
b0 f
b10 c
b0 &"
b1010 ("
b101 '"
b100011 i
b10000000011000 '
b10000000011000 r
b10000000011000 %"
b10000100 -
b10000100 z
b10000100 !"
b101000101010000000100011 .
b101000101010000000100011 B
b101000101010000000100011 L
b101000101010000000100011 W
b101000101010000000100011 b
b10000000 6
b10000000 w
b10000000 0"
b10000000 (
b10000000 ~
b10000000 /"
b10000100 ,
b10000100 p
b10000100 x
b10000100 4"
b10000000 +
b10000000 C
b10000000 |
b10000000 $"
b10000000 3"
1"
#260000
0"
#270000
b10000000010000 '
b10000000010000 r
b10000000010000 %"
b10000000010000 =
b10000000010000 K
b10000000010000 [
b10000000010000 m
b1 1
b1 S
b1 \
b1 t
b1 ,"
b10000000010000 2
b10000000010000 I
b10000000010000 T
b10000000010000 {
b10000000010000 +"
b1011 ("
b110 '"
b10001000 -
b10001000 z
b10001000 !"
b101100110010000000100011 .
b101100110010000000100011 B
b101100110010000000100011 L
b101100110010000000100011 W
b101100110010000000100011 b
b10000100 6
b10000100 w
b10000100 0"
b10000100 (
b10000100 ~
b10000100 /"
b10001000 ,
b10001000 p
b10001000 x
b10001000 4"
b10000100 +
b10000100 C
b10000100 |
b10000100 $"
b10000100 3"
1"
#280000
0"
#290000
b0 8
b0 ]
b0 n
b10000000011100 =
b10000000011100 K
b10000000011100 [
b10000000011100 m
b0 '
b0 r
b0 %"
b0 1
b0 S
b0 \
b0 t
b0 ,"
b10000000011100 2
b10000000011100 I
b10000000011100 T
b10000000011100 {
b10000000011100 +"
09
1;
17
b1 :
b1 l
b1 o
0M
b11 X
b1100 &"
b0 ("
b111 '"
b11 i
b10001100 -
b10001100 z
b10001100 !"
b111010011000000011 .
b111010011000000011 B
b111010011000000011 L
b111010011000000011 W
b111010011000000011 b
b10001000 6
b10001000 w
b10001000 0"
b10001000 (
b10001000 ~
b10001000 /"
b10001100 ,
b10001100 p
b10001100 x
b10001100 4"
b10001000 +
b10001000 C
b10001000 |
b10001000 $"
b10001000 3"
1"
#300000
0"
#310000
1&
0%
b0 =
b0 K
b0 [
b0 m
b1 3
b1 U
b1 V
0$
b0 '
b0 r
b0 %"
b110 4
b110 H
b110 R
0*
b11111111111111111111111111111100 /
b11111111111111111111111111111100 a
b11111111111111111111111111111100 s
b11111111111111111111111111111100 ."
b0 2
b0 I
b0 T
b0 {
b0 +"
1<
0;
07
b0 :
b0 l
b0 o
0>
b1 ?
b1 P
b1 k
1M
b1 N
1O
b1 Y
b1100011 X
b11111111111111111111111111111100 g
b111111111100 e
b1 c
b11101 &"
b1100 '"
b1100011 i
b10010000 -
b10010000 z
b10010000 !"
b11111110000001100001111011100011 .
b11111110000001100001111011100011 B
b11111110000001100001111011100011 L
b11111110000001100001111011100011 W
b11111110000001100001111011100011 b
b10001000 6
b10001000 w
b10001000 0"
b10001100 (
b10001100 ~
b10001100 /"
b10010000 ,
b10010000 p
b10010000 x
b10010000 4"
b10001100 +
b10001100 C
b10001100 |
b10001100 $"
b10001100 3"
1"
#320000
0"
#330000
0&
b110000 =
b110000 K
b110000 [
b110000 m
b10 3
b10 U
b10 V
1%
b10010100 '
b10010100 r
b10010100 %"
b0 /
b0 a
b0 s
b0 ."
b110000 2
b110000 I
b110000 T
b110000 {
b110000 +"
10
1)
17
b10 :
b10 l
b10 o
b0 N
0O
b0 Y
b1100111 X
b0 g
b0 e
b0 c
b0 &"
b1 '"
b1100111 i
b110000 -
b110000 z
b110000 !"
b1000000001100111 .
b1000000001100111 B
b1000000001100111 L
b1000000001100111 W
b1000000001100111 b
b110000 6
b110000 w
b110000 0"
b110000 (
b110000 ~
b110000 /"
b10010100 ,
b10010100 p
b10010100 x
b10010100 4"
b10010000 +
b10010000 C
b10010000 |
b10010000 $"
b10010000 3"
1"
#340000
0"
#350000
b110100 -
b110100 z
b110100 !"
b1100101 =
b1100101 K
b1100101 [
b1100101 m
b0 3
b0 U
b0 V
0%
b1100101 5
b1100101 G
b1100101 v
b10 4
b10 H
b10 R
b10010101 6
b10010101 w
b10010101 0"
b1100101 /
b1100101 a
b1100101 s
b1100101 ."
b10000000011000 1
b10000000011000 S
b10000000011000 \
b10000000011000 t
b10000000011000 ,"
b0 2
b0 I
b0 T
b0 {
b0 +"
00
0)
0<
b0 :
b0 l
b0 o
1>
b10 ?
b10 P
b10 k
0M
b10011 X
b1100101 g
b1100101 e
b1010 &"
b101 ("
b0 '"
b10011 i
b1100101 '
b1100101 r
b1100101 %"
b110010100000000010100010011 .
b110010100000000010100010011 B
b110010100000000010100010011 L
b110010100000000010100010011 W
b110010100000000010100010011 b
b110100 ,
b110100 p
b110100 x
b110100 4"
b110000 +
b110000 C
b110000 |
b110000 $"
b110000 3"
1"
#360000
0"
#370000
1&
b0 =
b0 K
b0 [
b0 m
b1 3
b1 U
b1 V
1%
b111000 '
b111000 r
b111000 %"
b0 5
b0 G
b0 v
b110 4
b110 H
b110 R
b1001100 /
b1001100 a
b1001100 s
b1001100 ."
b0 1
b0 S
b0 \
b0 t
b0 ,"
1)
1<
b10 :
b10 l
b10 o
0>
b1 ?
b1 P
b1 k
1M
b1101111 X
b1001100 h
b0 g
b0 e
b1001100 f
b1 &"
b1100 ("
b1101111 i
b10000000 -
b10000000 z
b10000000 !"
b100110000000000000011101111 .
b100110000000000000011101111 B
b100110000000000000011101111 L
b100110000000000000011101111 W
b100110000000000000011101111 b
b10000000 6
b10000000 w
b10000000 0"
b110100 (
b110100 ~
b110100 /"
b111000 ,
b111000 p
b111000 x
b111000 4"
b110100 +
b110100 C
b110100 |
b110100 $"
b110100 3"
1"
#380000
0"
#390000
0&
b10000000011000 =
b10000000011000 K
b10000000011000 [
b10000000011000 m
b10 3
b10 U
b10 V
0%
b10 4
b10 H
b10 R
b0 /
b0 a
b0 s
b0 ."
b1100101 1
b1100101 S
b1100101 \
b1100101 t
b1100101 ,"
b10000000011000 2
b10000000011000 I
b10000000011000 T
b10000000011000 {
b10000000011000 +"
0)
0<
19
07
b0 :
b0 l
b0 o
1>
b0 ?
b0 P
b0 k
b10 N
b10 Y
b100011 X
b0 h
b0 f
b10 c
b0 &"
b1010 ("
b101 '"
b100011 i
b10000000011000 '
b10000000011000 r
b10000000011000 %"
b10000100 -
b10000100 z
b10000100 !"
b101000101010000000100011 .
b101000101010000000100011 B
b101000101010000000100011 L
b101000101010000000100011 W
b101000101010000000100011 b
b10000000 6
b10000000 w
b10000000 0"
b10000000 (
b10000000 ~
b10000000 /"
b10000100 ,
b10000100 p
b10000100 x
b10000100 4"
b10000000 +
b10000000 C
b10000000 |
b10000000 $"
b10000000 3"
1"
#400000
0"
#410000
b10000000010000 '
b10000000010000 r
b10000000010000 %"
b10000000010000 =
b10000000010000 K
b10000000010000 [
b10000000010000 m
b1 1
b1 S
b1 \
b1 t
b1 ,"
b10000000010000 2
b10000000010000 I
b10000000010000 T
b10000000010000 {
b10000000010000 +"
b1011 ("
b110 '"
b10001000 -
b10001000 z
b10001000 !"
b101100110010000000100011 .
b101100110010000000100011 B
b101100110010000000100011 L
b101100110010000000100011 W
b101100110010000000100011 b
b10000100 6
b10000100 w
b10000100 0"
b10000100 (
b10000100 ~
b10000100 /"
b10001000 ,
b10001000 p
b10001000 x
b10001000 4"
b10000100 +
b10000100 C
b10000100 |
b10000100 $"
b10000100 3"
1"
#420000
0"
#430000
b0 8
b0 ]
b0 n
b10000000011100 =
b10000000011100 K
b10000000011100 [
b10000000011100 m
b0 '
b0 r
b0 %"
b0 1
b0 S
b0 \
b0 t
b0 ,"
b10000000011100 2
b10000000011100 I
b10000000011100 T
b10000000011100 {
b10000000011100 +"
09
1;
17
b1 :
b1 l
b1 o
0M
b11 X
b1100 &"
b0 ("
b111 '"
b11 i
b10001100 -
b10001100 z
b10001100 !"
b111010011000000011 .
b111010011000000011 B
b111010011000000011 L
b111010011000000011 W
b111010011000000011 b
b10001000 6
b10001000 w
b10001000 0"
b10001000 (
b10001000 ~
b10001000 /"
b10001100 ,
b10001100 p
b10001100 x
b10001100 4"
b10001000 +
b10001000 C
b10001000 |
b10001000 $"
b10001000 3"
1"
#440000
0"
#450000
1&
0%
b0 =
b0 K
b0 [
b0 m
b1 3
b1 U
b1 V
0$
b0 '
b0 r
b0 %"
b110 4
b110 H
b110 R
0*
b11111111111111111111111111111100 /
b11111111111111111111111111111100 a
b11111111111111111111111111111100 s
b11111111111111111111111111111100 ."
b0 2
b0 I
b0 T
b0 {
b0 +"
1<
0;
07
b0 :
b0 l
b0 o
0>
b1 ?
b1 P
b1 k
1M
b1 N
1O
b1 Y
b1100011 X
b11111111111111111111111111111100 g
b111111111100 e
b1 c
b11101 &"
b1100 '"
b1100011 i
b10010000 -
b10010000 z
b10010000 !"
b11111110000001100001111011100011 .
b11111110000001100001111011100011 B
b11111110000001100001111011100011 L
b11111110000001100001111011100011 W
b11111110000001100001111011100011 b
b10001000 6
b10001000 w
b10001000 0"
b10001100 (
b10001100 ~
b10001100 /"
b10010000 ,
b10010000 p
b10010000 x
b10010000 4"
b10001100 +
b10001100 C
b10001100 |
b10001100 $"
b10001100 3"
1"
#460000
0"
#470000
0&
b111000 =
b111000 K
b111000 [
b111000 m
b10 3
b10 U
b10 V
1%
b10010100 '
b10010100 r
b10010100 %"
b0 /
b0 a
b0 s
b0 ."
b111000 2
b111000 I
b111000 T
b111000 {
b111000 +"
10
1)
17
b10 :
b10 l
b10 o
b0 N
0O
b0 Y
b1100111 X
b0 g
b0 e
b0 c
b0 &"
b1 '"
b1100111 i
b111000 -
b111000 z
b111000 !"
b1000000001100111 .
b1000000001100111 B
b1000000001100111 L
b1000000001100111 W
b1000000001100111 b
b111000 6
b111000 w
b111000 0"
b111000 (
b111000 ~
b111000 /"
b10010100 ,
b10010100 p
b10010100 x
b10010100 4"
b10010000 +
b10010000 C
b10010000 |
b10010000 $"
b10010000 3"
1"
#480000
0"
#490000
b111100 -
b111100 z
b111100 !"
b1101100 =
b1101100 K
b1101100 [
b1101100 m
b1 3
b1 U
b1 V
0%
b1101100 5
b1101100 G
b1101100 v
b10 4
b10 H
b10 R
b10100100 6
b10100100 w
b10100100 0"
b1101100 /
b1101100 a
b1101100 s
b1101100 ."
b0 2
b0 I
b0 T
b0 {
b0 +"
00
0)
0<
b0 :
b0 l
b0 o
1>
b10 ?
b10 P
b10 k
0M
b10011 X
b1101100 g
b1101100 e
b1010 &"
b1100 ("
b0 '"
b10011 i
b1101100 '
b1101100 r
b1101100 %"
b110110000000000010100010011 .
b110110000000000010100010011 B
b110110000000000010100010011 L
b110110000000000010100010011 W
b110110000000000010100010011 b
b111100 ,
b111100 p
b111100 x
b111100 4"
b111000 +
b111000 C
b111000 |
b111000 $"
b111000 3"
1"
#500000
0"
#510000
1&
b0 =
b0 K
b0 [
b0 m
1%
b1000000 '
b1000000 r
b1000000 %"
b0 5
b0 G
b0 v
b110 4
b110 H
b110 R
b1000100 /
b1000100 a
b1000100 s
b1000100 ."
1)
1<
b10 :
b10 l
b10 o
0>
b1 ?
b1 P
b1 k
1M
b1101111 X
b1000100 h
b0 g
b0 e
b1000100 f
b1 &"
b100 ("
b1101111 i
b10000000 -
b10000000 z
b10000000 !"
b100010000000000000011101111 .
b100010000000000000011101111 B
b100010000000000000011101111 L
b100010000000000000011101111 W
b100010000000000000011101111 b
b10000000 6
b10000000 w
b10000000 0"
b111100 (
b111100 ~
b111100 /"
b1000000 ,
b1000000 p
b1000000 x
b1000000 4"
b111100 +
b111100 C
b111100 |
b111100 $"
b111100 3"
1"
#520000
0"
#530000
0&
b10000000011000 =
b10000000011000 K
b10000000011000 [
b10000000011000 m
b10 3
b10 U
b10 V
0%
b10 4
b10 H
b10 R
b0 /
b0 a
b0 s
b0 ."
b1101100 1
b1101100 S
b1101100 \
b1101100 t
b1101100 ,"
b10000000011000 2
b10000000011000 I
b10000000011000 T
b10000000011000 {
b10000000011000 +"
0)
0<
19
07
b0 :
b0 l
b0 o
1>
b0 ?
b0 P
b0 k
b10 N
b10 Y
b100011 X
b0 h
b0 f
b10 c
b0 &"
b1010 ("
b101 '"
b100011 i
b10000000011000 '
b10000000011000 r
b10000000011000 %"
b10000100 -
b10000100 z
b10000100 !"
b101000101010000000100011 .
b101000101010000000100011 B
b101000101010000000100011 L
b101000101010000000100011 W
b101000101010000000100011 b
b10000000 6
b10000000 w
b10000000 0"
b10000000 (
b10000000 ~
b10000000 /"
b10000100 ,
b10000100 p
b10000100 x
b10000100 4"
b10000000 +
b10000000 C
b10000000 |
b10000000 $"
b10000000 3"
1"
#540000
0"
