Parte 2 - Microcontrolador/Perifericos/7segments/tb_module_top_7_segments.vcd
$date
	Tue Jun 04 16:00:10 2024
$end
$version
	Icarus Verilog
$end
$timescale
	1ps
$end
$scope module tb_module_top_7_segments $end
$var wire 1 ! g $end
$var wire 1 " f $end
$var wire 1 # e $end
$var wire 1 $ d $end
$var wire 1 % c $end
$var wire 1 & b $end
$var wire 1 ' a $end
$var wire 8 ( AN [7:0] $end
$var parameter 32 ) CLK_PERIOD $end
$var reg 32 * activation [31:0] $end
$var reg 1 + clk $end
$var reg 1 , rst $end
$var reg 1 - we_7seg $end
$scope module dut $end
$var wire 32 . activation [31:0] $end
$var wire 1 + clk $end
$var wire 1 , rst $end
$var wire 1 - we_7seg $end
$var wire 1 ! g $end
$var wire 1 " f $end
$var wire 8 / entrada_bcd [7:0] $end
$var wire 1 # e $end
$var wire 16 0 deco_data_decimal [15:0] $end
$var wire 12 1 dato_decimal [11:0] $end
$var wire 1 $ d $end
$var wire 32 2 counter [31:0] $end
$var wire 1 % c $end
$var wire 1 & b $end
$var wire 1 ' a $end
$var wire 8 3 AN [7:0] $end
$scope module convertidor_bcd $end
$var wire 8 4 dato [7:0] $end
$var wire 4 5 unidades [3:0] $end
$var wire 12 6 decimal [11:0] $end
$var wire 4 7 decenas [3:0] $end
$var wire 4 8 centenas [3:0] $end
$var wire 20 9 cable [19:0] $end
$scope module ev0 $end
$var wire 1 : D0 $end
$var wire 1 ; D1 $end
$var wire 1 < D2 $end
$var wire 1 = D3 $end
$var wire 4 > entrada_concatenada [3:0] $end
$var wire 1 ? Q3 $end
$var wire 1 @ Q2 $end
$var wire 1 A Q1 $end
$var wire 1 B Q0 $end
$var reg 4 C resultado [3:0] $end
$upscope $end
$scope module ev1 $end
$var wire 1 D D0 $end
$var wire 1 E D1 $end
$var wire 1 F D2 $end
$var wire 1 G D3 $end
$var wire 4 H entrada_concatenada [3:0] $end
$var wire 1 I Q3 $end
$var wire 1 J Q2 $end
$var wire 1 K Q1 $end
$var wire 1 L Q0 $end
$var reg 4 M resultado [3:0] $end
$upscope $end
$scope module ev2 $end
$var wire 1 N D0 $end
$var wire 1 O D1 $end
$var wire 1 P D2 $end
$var wire 1 Q D3 $end
$var wire 4 R entrada_concatenada [3:0] $end
$var wire 1 S Q3 $end
$var wire 1 T Q2 $end
$var wire 1 U Q1 $end
$var wire 1 V Q0 $end
$var reg 4 W resultado [3:0] $end
$upscope $end
$scope module ev3 $end
$var wire 1 X D0 $end
$var wire 1 Y D1 $end
$var wire 1 Z D2 $end
$var wire 1 [ D3 $end
$var wire 4 \ entrada_concatenada [3:0] $end
$var wire 1 ] Q3 $end
$var wire 1 ^ Q2 $end
$var wire 1 _ Q1 $end
$var wire 1 ` Q0 $end
$var reg 4 a resultado [3:0] $end
$upscope $end
$scope module ev4 $end
$var wire 1 b D0 $end
$var wire 1 c D1 $end
$var wire 1 d D2 $end
$var wire 1 e D3 $end
$var wire 4 f entrada_concatenada [3:0] $end
$var wire 1 g Q3 $end
$var wire 1 h Q2 $end
$var wire 1 i Q1 $end
$var wire 1 j Q0 $end
$var reg 4 k resultado [3:0] $end
$upscope $end
$scope module ev5 $end
$var wire 1 l D0 $end
$var wire 1 m D1 $end
$var wire 1 n D2 $end
$var wire 1 o D3 $end
$var wire 4 p entrada_concatenada [3:0] $end
$var wire 1 q Q3 $end
$var wire 1 r Q2 $end
$var wire 1 s Q1 $end
$var wire 1 t Q0 $end
$var reg 4 u resultado [3:0] $end
$upscope $end
$scope module ev6 $end
$var wire 1 v D0 $end
$var wire 1 w D1 $end
$var wire 1 x D2 $end
$var wire 1 y D3 $end
$var wire 4 z entrada_concatenada [3:0] $end
$var wire 1 { Q3 $end
$var wire 1 | Q2 $end
$var wire 1 } Q1 $end
$var wire 1 ~ Q0 $end
$var reg 4 !" resultado [3:0] $end
$upscope $end
$upscope $end
$scope module cycle_counter $end
$var wire 32 "" activation [31:0] $end
$var wire 1 + clk $end
$var wire 1 , reset $end
$var wire 1 - we_7seg $end
$var reg 32 #" counter [31:0] $end
$var reg 1 $" counting $end
$upscope $end
$scope module deco7segments_inst $end
$var wire 1 + clk_10MHz $end
$var wire 1 , i_Rst $end
$var wire 16 %" switches [15:0] $end
$var wire 4 &" selected_switches [3:0] $end
$var wire 2 '" mux [1:0] $end
$var wire 1 ! g $end
$var wire 1 " f $end
$var wire 1 # e $end
$var wire 1 $ d $end
$var wire 1 (" clk_mux $end
$var wire 1 % c $end
$var wire 1 & b $end
$var wire 1 ' a $end
$var wire 8 )" AN [7:0] $end
$scope module control $end
$var wire 1 , rst $end
$var wire 1 (" clk $end
$var reg 8 *" AN [7:0] $end
$var reg 2 +" contador [1:0] $end
$var reg 2 ," mux_control [1:0] $end
$upscope $end
$scope module deco $end
$var wire 4 -" selected_switches [3:0] $end
$var wire 1 ." D $end
$var wire 1 /" C $end
$var wire 1 0" B $end
$var wire 1 1" A $end
$var reg 1 ' a $end
$var reg 1 & b $end
$var reg 1 % c $end
$var reg 1 $ d $end
$var reg 1 # e $end
$var reg 1 " f $end
$var reg 1 ! g $end
$upscope $end
$scope module divimux $end
$var wire 1 + clk $end
$var wire 1 , rst $end
$var parameter 32 2" CLK_FREQUENCY $end
$var parameter 64 3" CYCLES_PER_PERIOD $end
$var parameter 32 4" TARGET_FREQUENCY $end
$var reg 2 5" cycle_counter [-1:0] $end
$var reg 1 (" enable $end
$upscope $end
$scope module muxinst $end
$var wire 2 6" mux [1:0] $end
$var wire 16 7" switches [15:0] $end
$var reg 2 8" select [1:0] $end
$var reg 4 9" selected_switches [3:0] $end
$upscope $end
$upscope $end
$upscope $end
$upscope $end
$enddefinitions $end
$comment Show the parameter values. $end
$dumpall
b1011011100011011000000 4"
b1 3"
b100110001001011010000000 2"
b1010 )
$end
#0
$dumpvars
b0 9"
bx 8"
b0xxxxxxxxxx 7"
bx 6"
bx 5"
01"
00"
0/"
0."
b0 -"
bx ,"
bx +"
bx *"
bx )"
x("
bx '"
b0 &"
b0xxxxxxxxxx %"
x$"
bx #"
b0 ""
bx !"
x~
x}
x|
x{
bx z
xy
xx
xw
xv
bx u
xt
xs
xr
xq
bx p
xo
xn
xm
xl
bx k
xj
xi
xh
xg
b0xxx f
0e
xd
xc
xb
bx a
x`
x_
x^
x]
bx \
x[
xZ
xY
xX
bx W
xV
xU
xT
xS
bx R
xQ
xP
xO
xN
bx M
xL
xK
xJ
xI
bx H
xG
xF
xE
xD
bx C
xB
xA
x@
x?
b0xxx >
0=
x<
x;
x:
bx 9
b0xx 8
bx 7
b0xxxxxxxxxx 6
bx 5
bx 4
bx 3
bx 2
b0xxxxxxxxxx 1
b0xxxxxxxxxx 0
bx /
b0 .
0-
0,
0+
b0 *
bx (
0'
0&
0%
0$
0#
0"
1!
$end
#5000
0{
0|
0}
0~
b0 7
0q
0r
0s
0t
b0 !"
b0 u
b0 8
0y
0x
0w
b0 z
0v
0o
0n
0m
0g
0h
0i
0j
0]
0^
0_
0`
b0 k
b0 a
0b
0[
0Z
0Y
0S
0T
0U
0V
b0 W
0c
0Q
0P
0O
0I
0J
0K
0L
b0 M
b0 f
0d
0G
0F
0E
0?
0@
0A
b0 9
0B
b0 C
b1 0
b1 %"
b1 7"
b1 1
b1 6
b1 5
0:
0;
b0 >
0<
b0 H
0D
b0 R
0N
b0 \
0X
b0 p
0l
b1 /
b1 4
0$"
b1 2
b1 #"
0("
b0 5"
b0 +"
1,
1+
#10000
0+
#15000
0,
1+
#20000
0+
#25000
b1 +"
1"
1#
1$
1'
1."
b1 &"
b1 -"
b1 9"
b0 8"
b11111110 (
b11111110 3
b11111110 )"
b11111110 *"
b0 '"
b0 ,"
b0 6"
1("
1+
#30000
0+
#35000
0("
1+
#40000
0+
#45000
b10 +"
0"
0#
0$
0'
0."
b0 &"
b0 -"
b0 9"
b1 8"
b11111101 (
b11111101 3
b11111101 )"
b11111101 *"
b1 '"
b1 ,"
b1 6"
1("
1+
#50000
0+
#55000
0("
1+
#60000
0+
#65000
b11 +"
b10 8"
b11111011 (
b11111011 3
b11111011 )"
b11111011 *"
b10 '"
b10 ,"
b10 6"
1("
1+
#70000
0+
#75000
0("
1+
#80000
0+
#85000
b0 +"
b11 8"
b11110111 (
b11110111 3
b11110111 )"
b11110111 *"
b11 '"
b11 ,"
b11 6"
1("
1+
#90000
0+
#95000
0("
1+
#100000
0+
#105000
b1 +"
1"
1#
1$
1'
1."
b1 &"
b1 -"
b1 9"
b0 8"
b11111110 (
b11111110 3
b11111110 )"
b11111110 *"
b0 '"
b0 ,"
b0 6"
1("
1+
#110000
0+
#115000
b1010000000000000001 2
b1010000000000000001 #"
0("
1-
b1 *
b1 .
b1 ""
1+
#120000
0+
#125000
b10 +"
0"
0#
0$
0'
0."
b0 &"
b0 -"
b0 9"
b1 8"
b11111101 (
b11111101 3
b11111101 )"
b11111101 *"
b1 '"
b1 ,"
b1 6"
b1 2
b1 #"
1("
0-
1+
#130000
0+
#135000
b10000000000000001 2
b10000000000000001 #"
0("
1+
#140000
0+
#145000
b11 +"
b10 8"
b11111011 (
b11111011 3
b11111011 )"
b11111011 *"
b10 '"
b10 ,"
b10 6"
1$"
1("
1+
#150000
0+
#155000
1t
b1 u
b10 0
b10 %"
b10 7"
b10 1
b10 6
b10 5
b1 p
1l
b10 /
b10 4
b10000000000000010 2
b10000000000000010 #"
0("
1+
#160000
0+
#165000
b0 +"
b11 0
b11 %"
b11 7"
b11 1
b11 6
b11 5
b11 8"
b11 /
b11 4
b11110111 (
b11110111 3
b11110111 )"
b11110111 *"
b11 '"
b11 ,"
b11 6"
b10000000000000011 2
b10000000000000011 #"
1("
1+
#170000
0+
#175000
1s
1m
b1000000000000 9
1`
0t
b1 a
b10 u
b100 0
b100 %"
b100 7"
b100 1
b100 6
b100 5
b1 \
1X
b10 p
0l
b100 /
b100 4
b10000000000000100 2
b10000000000000100 #"
0("
1+
#180000
0+
#185000
b1 +"
0!
1#
1&
1."
10"
b101 &"
b101 -"
b101 9"
b101 0
b101 %"
b101 7"
b101 1
b101 6
b101 5
b0 8"
b101 /
b101 4
b11111110 (
b11111110 3
b11111110 )"
b11111110 *"
b0 '"
b0 ,"
b0 6"
b10000000000000101 2
b10000000000000101 #"
1("
1+
#190000
0+
#195000
0#
1/"
0$
1&
0'
0."
1t
b110 &"
b110 -"
b110 9"
b11 u
b110 0
b110 %"
b110 7"
b110 1
b110 6
b110 5
b11 p
1l
b110 /
b110 4
b10000000000000110 2
b10000000000000110 #"
0("
1+
#200000
0+
#205000
b10 +"
1!
0&
0/"
00"
b0 &"
b0 -"
b0 9"
b111 0
b111 %"
b111 7"
b111 1
b111 6
b111 5
b1 8"
b111 /
b111 4
b11111101 (
b11111101 3
b11111101 )"
b11111101 *"
b1 '"
b1 ,"
b1 6"
b10000000000000111 2
b10000000000000111 #"
1("
1+
#210000
0+
#215000
1r
1n
1_
0s
1Y
0m
1V
b10000100000000 9
0`
0t
b1 W
b10 a
b100 u
b1000 0
b1000 %"
b1000 7"
b1000 1
b1000 6
b1000 5
b1 R
1N
b10 \
0X
b100 p
0l
b1000 /
b1000 4
b10000000000001000 2
b10000000000001000 #"
0("
1+
#220000
0+
#225000
b11 +"
b1001 0
b1001 %"
b1001 7"
b1001 1
b1001 6
b1001 5
b10 8"
b1001 /
b1001 4
b11111011 (
b11111011 3
b11111011 )"
b11111011 *"
b10 '"
b10 ,"
b10 6"
b10000000000001001 2
b10000000000001001 #"
1("
1+
#230000
0+
#235000
b1 7
1q
0r
b1000 u
b10000 0
b10000 %"
b10000 7"
b10000 1
b10000 6
b0 5
b101 p
1l
b1010 /
b1010 4
b10000000000001010 2
b10000000000001010 #"
0("
1+
#240000
0+
#245000
b0 +"
b10001 0
b10001 %"
b10001 7"
b10001 1
b10001 6
b1 5
b11 8"
b1011 /
b1011 4
b11110111 (
b11110111 3
b11110111 )"
b11110111 *"
b11 '"
b11 ,"
b11 6"
b10000000000001011 2
b10000000000001011 #"
1("
1+
#250000
0+
#255000
1t
1m
b11000100000000 9
1`
b1 7
1q
0r
b11 a
b1001 u
b10010 0
b10010 %"
b10010 7"
b10010 1
b10010 6
b10 5
b11 \
1X
b110 p
0l
b1100 /
b1100 4
b10000000000001100 2
b10000000000001100 #"
0("
1+
#260000
0+
#265000
b1 +"
0!
1"
1#
1."
1/"
b11 &"
b11 -"
b11 9"
b10011 0
b10011 %"
b10011 7"
b10011 1
b10011 6
b11 5
b0 8"
b1101 /
b1101 4
b11111110 (
b11111110 3
b11111110 )"
b11111110 *"
b0 '"
b0 ,"
b0 6"
b10000000000001101 2
b10000000000001101 #"
1("
1+
#270000
0+
#275000
0"
1$
1'
0/"
10"
1#
0%
0."
1s
0t
b100 &"
b100 -"
b100 9"
b1010 u
b10100 0
b10100 %"
b10100 7"
b10100 1
b10100 6
b100 5
b111 p
1l
b1110 /
b1110 4
b10000000000001110 2
b10000000000001110 #"
0("
1+
#280000
0+
#285000
b10 +"
1!
1"
1."
00"
b1 &"
b1 -"
b1 9"
b10101 0
b10101 %"
b10101 7"
b10101 1
b10101 6
b101 5
b1 8"
b1111 /
b1111 4
b11111101 (
b11111101 3
b11111101 )"
b11111101 *"
b1 '"
b1 ,"
b1 6"
b10000000000001111 2
b10000000000001111 #"
1("
1+
#290000
0+
#295000
1o
1^
1"
1#
1$
1'
1."
1Z
0n
b1 &"
b1 -"
b1 9"
1U
0_
b1 7
1q
0r
1O
0Y
0m
1L
0V
b100001000010000 9
0`
1s
1t
b1 M
b10 W
b100 a
b1011 u
b10110 0
b10110 %"
b10110 7"
b10110 1
b10110 6
b110 5
b1 H
1D
b10 R
0N
b100 \
0X
b1000 p
0l
b10000 /
b10000 4
b10000000000010000 2
b10000000000010000 #"
0("
1+
#300000
0+
#305000
b11 +"
0"
0#
0$
0'
0."
b0 &"
b0 -"
b0 9"
b10111 0
b10111 %"
b10111 7"
b10111 1
b10111 6
b111 5
b10 8"
b10001 /
b10001 4
b11111011 (
b11111011 3
b11111011 )"
b11111011 *"
b10 '"
b10 ,"
b10 6"
b10000000000010001 2
b10000000000010001 #"
1("
1+
#310000
0+
#315000
1r
0s
0t
b1100 u
b11000 0
b11000 %"
b11000 7"
b11000 1
b11000 6
b1000 5
b1001 p
1l
b10010 /
b10010 4
b10000000000010010 2
b10000000000010010 #"
0("
1+
#320000
0+
#325000
b0 +"
b11001 0
b11001 %"
b11001 7"
b11001 1
b11001 6
b1001 5
b11 8"
b10011 /
b10011 4
b11110111 (
b11110111 3
b11110111 )"
b11110111 *"
b11 '"
b11 ,"
b11 6"
b10000000000010011 2
b10000000000010011 #"
1("
1+
#330000
0+
#335000
1~
b10 7
0q
b1 !"
b1 z
1v
0o
1]
b1000001000010000 9
0^
0r
0s
0t
b1000 a
b0 u
b100000 0
b100000 %"
b100000 7"
b100000 1
b100000 6
b0 5
b101 \
1X
b0 p
0l
b10100 /
b10100 4
b10000000000010100 2
b10000000000010100 #"
0("
1+
#340000
0+
#345000
b1 +"
1"
1#
1$
1'
1."
b1 &"
b1 -"
b1 9"
b100001 0
b100001 %"
b100001 7"
b100001 1
b100001 6
b1 5
b0 8"
b10101 /
b10101 4
b11111110 (
b11111110 3
b11111110 )"
b11111110 *"
b0 '"
b0 ,"
b0 6"
b10000000000010101 2
b10000000000010101 #"
1("
1+
#350000
0+
#355000
0!
1%
1/"
1"
0#
0$
0'
0."
1t
b10 &"
b10 -"
b10 9"
b1 u
b100010 0
b100010 %"
b100010 7"
b100010 1
b100010 6
b10 5
b1 p
1l
b10110 /
b10110 4
b10000000000010110 2
b10000000000010110 #"
0("
1+
#360000
0+
#365000
b10 +"
b100011 0
b100011 %"
b100011 7"
b100011 1
b100011 6
b11 5
b1 8"
b10111 /
b10111 4
b11111101 (
b11111101 3
b11111101 )"
b11111101 *"
b1 '"
b1 ,"
b1 6"
b10000000000010111 2
b10000000000010111 #"
1("
1+
#370000
0+
#375000
0!
0#
0$
1%
0'
0."
1/"
1m
b10 &"
b10 -"
b10 9"
1`
1~
b10 7
0q
1s
b1 !"
1Y
b1 z
1v
0o
1V
1]
b1001001100010000 9
0^
0t
b11 W
b1001 a
b10 u
b100100 0
b100100 %"
b100100 7"
b100100 1
b100100 6
b100 5
b11 R
1N
b110 \
0X
b10 p
0l
b11000 /
b11000 4
b10000000000011000 2
b10000000000011000 #"
0("
1+
#380000
0+
#385000
b11 +"
1!
0"
0%
0/"
b0 &"
b0 -"
b0 9"
b100101 0
b100101 %"
b100101 7"
b100101 1
b100101 6
b101 5
b10 8"
b11001 /
b11001 4
b11111011 (
b11111011 3
b11111011 )"
b11111011 *"
b10 '"
b10 ,"
b10 6"
b10000000000011001 2
b10000000000011001 #"
1("
1+
#390000
0+
#395000
1t
b11 u
b100110 0
b100110 %"
b100110 7"
b100110 1
b100110 6
b110 5
b11 p
1l
b11010 /
b11010 4
b10000000000011010 2
b10000000000011010 #"
0("
1+
#400000
0+
#405000
b0 +"
b100111 0
b100111 %"
b100111 7"
b100111 1
b100111 6
b111 5
b11 8"
b11011 /
b11011 4
b11110111 (
b11110111 3
b11110111 )"
b11110111 *"
b11 '"
b11 ,"
b11 6"
b10000000000011011 2
b10000000000011011 #"
1("
1+
#410000
0+
#415000
1r
0s
1n
0m
1_
b1010001100010000 9
0`
0t
b1010 a
b100 u
b101000 0
b101000 %"
b101000 7"
b101000 1
b101000 6
b1000 5
b111 \
1X
b100 p
0l
b11100 /
b11100 4
b10000000000011100 2
b10000000000011100 #"
0("
1+
#420000
0+
#425000
b1 +"
0!
1#
1$
1."
11"
b1001 &"
b1001 -"
b1001 9"
b101001 0
b101001 %"
b101001 7"
b101001 1
b101001 6
b1001 5
b0 8"
b11101 /
b11101 4
b11111110 (
b11111110 3
b11111110 )"
b11111110 *"
b0 '"
b0 ,"
b0 6"
b10000000000011101 2
b10000000000011101 #"
1("
1+
#430000
0+
#435000
1!
01"
0#
0$
0."
b11 7
1q
0r
b0 &"
b0 -"
b0 9"
b1000 u
b110000 0
b110000 %"
b110000 7"
b110000 1
b110000 6
b0 5
b101 p
1l
b11110 /
b11110 4
b10000000000011110 2
b10000000000011110 #"
0("
1+
#440000
0+
#445000
b10 +"
0!
1"
1#
1."
1/"
b11 &"
b11 -"
b11 9"
b110001 0
b110001 %"
b110001 7"
b110001 1
b110001 6
b1 5
b1 8"
b11111 /
b11111 4
b11111101 (
b11111101 3
b11111101 )"
b11111101 *"
b1 '"
b1 ,"
b1 6"
b10000000000011111 2
b10000000000011111 #"
1("
1+
#450000
0+
#455000
1"
0!
0$
0'
1/"
1[
1T
1~
1t
b1 !"
1P
0Z
b1 z
1v
0o
1K
0U
1]
0^
0s
1#
0%
1."
1E
0O
0Y
1n
1m
b11 &"
b11 -"
b11 9"
1B
0L
0V
1_
b1011010000100001 9
1`
b11 7
1q
0r
b1 C
b10 M
b100 W
b1011 a
b1001 u
b110010 0
b110010 %"
b110010 7"
b110010 1
b110010 6
b10 5
b1 >
1:
b10 H
0D
b100 R
0N
b1000 \
0X
b110 p
0l
b100000 /
b100000 4
b10000000000100000 2
b10000000000100000 #"
0("
1+
#460000
0+
#465000
b11 +"
1!
0"
0#
0."
0/"
b0 &"
b0 -"
b0 9"
b110011 0
b110011 %"
b110011 7"
b110011 1
b110011 6
b11 5
b10 8"
b100001 /
b100001 4
b11111011 (
b11111011 3
b11111011 )"
b11111011 *"
b10 '"
b10 ,"
b10 6"
b10000000000100001 2
b10000000000100001 #"
1("
1+
#470000
0+
#475000
1s
0t
b1010 u
b110100 0
b110100 %"
b110100 7"
b110100 1
b110100 6
b100 5
b111 p
1l
b100010 /
b100010 4
b10000000000100010 2
b10000000000100010 #"
0("
1+
#480000
0+
#485000
b0 +"
b110101 0
b110101 %"
b110101 7"
b110101 1
b110101 6
b101 5
b11 8"
b100011 /
b100011 4
b11110111 (
b11110111 3
b11110111 )"
b11110111 *"
b11 '"
b11 ,"
b11 6"
b10000000000100011 2
b10000000000100011 #"
1("
1+
#490000
0+
#495000
1o
0n
0m
1^
0_
b1100010000100001 9
0`
1s
1t
b1100 a
b1011 u
b110110 0
b110110 %"
b110110 7"
b110110 1
b110110 6
b110 5
b1001 \
1X
b1000 p
0l
b100100 /
b100100 4
b10000000000100100 2
b10000000000100100 #"
0("
1+
#500000
0+
#505000
b1 +"
1"
1#
1$
1."
1/"
10"
b111 &"
b111 -"
b111 9"
b110111 0
b110111 %"
b110111 7"
b110111 1
b110111 6
b111 5
b0 8"
b100101 /
b100101 4
b11111110 (
b11111110 3
b11111110 )"
b11111110 *"
b0 '"
b0 ,"
b0 6"
b10000000000100101 2
b10000000000100101 #"
1("
1+
#510000
0+
#515000
0/"
00"
11"
0!
0"
0#
0$
0&
0."
1r
0s
0t
b1000 &"
b1000 -"
b1000 9"
b1100 u
b111000 0
b111000 %"
b111000 7"
b111000 1
b111000 6
b1000 5
b1001 p
1l
b100110 /
b100110 4
b10000000000100110 2
b10000000000100110 #"
0("
1+
#520000
0+
#525000
b10 +"
1"
1#
1."
1/"
01"
b11 &"
b11 -"
b11 9"
b111001 0
b111001 %"
b111001 7"
b111001 1
b111001 6
b1001 5
b1 8"
b100111 /
b100111 4
b11111101 (
b11111101 3
b11111101 )"
b11111101 *"
b1 '"
b1 ,"
b1 6"
b10000000000100111 2
b10000000000100111 #"
1("
1+
#530000
0+
#535000
0"
1$
1'
0."
0/"
10"
b100 &"
b100 -"
b100 9"
1}
0~
b100 7
0q
b10 !"
1w
b10 z
0v
1j
0]
b1 k
b1 f
1b
0[
0o
0n
0m
1S
0T
0^
0_
b10000100000100001 9
0`
0r
0s
0t
b1000 W
b0 a
b0 u
b1000000 0
b1000000 %"
b1000000 7"
b1000000 1
b1000000 6
b0 5
b101 R
1N
b0 \
0X
b0 p
0l
b101000 /
b101000 4
b10000000000101000 2
b10000000000101000 #"
0("
1+
#540000
0+
#545000
b11 +"
1!
0#
0$
0'
00"
b0 &"
b0 -"
b0 9"
b1000001 0
b1000001 %"
b1000001 7"
b1000001 1
b1000001 6
b1 5
b10 8"
b101001 /
b101001 4
b11111011 (
b11111011 3
b11111011 )"
b11111011 *"
b10 '"
b10 ,"
b10 6"
b10000000000101001 2
b10000000000101001 #"
1("
1+
#550000
0+
#555000
1t
b1 u
b1000010 0
b1000010 %"
b1000010 7"
b1000010 1
b1000010 6
b10 5
b1 p
1l
b101010 /
b101010 4
b10000000000101010 2
b10000000000101010 #"
0("
1+
#560000
0+
#565000
b0 +"
b1000011 0
b1000011 %"
b1000011 7"
b1000011 1
b1000011 6
b11 5
b11 8"
b101011 /
b101011 4
b11110111 (
b11110111 3
b11110111 )"
b11110111 *"
b11 '"
b11 ,"
b11 6"
b10000000000101011 2
b10000000000101011 #"
1("
1+
#570000
0+
#575000
1s
1m
b10001100000100001 9
1`
0t
b1 a
b10 u
b1000100 0
b1000100 %"
b1000100 7"
b1000100 1
b1000100 6
b100 5
b1 \
1X
b10 p
0l
b101100 /
b101100 4
b10000000000101100 2
b10000000000101100 #"
0("
1+
#580000
0+
#585000
b1 +"
0!
1#
1&
1."
10"
b101 &"
b101 -"
b101 9"
b1000101 0
b1000101 %"
b1000101 7"
b1000101 1
b1000101 6
b101 5
b0 8"
b101101 /
b101101 4
b11111110 (
b11111110 3
b11111110 )"
b11111110 *"
b0 '"
b0 ,"
b0 6"
b10000000000101101 2
b10000000000101101 #"
1("
1+
#590000
0+
#595000
0#
1/"
0$
1&
0'
0."
1t
b110 &"
b110 -"
b110 9"
b11 u
b1000110 0
b1000110 %"
b1000110 7"
b1000110 1
b1000110 6
b110 5
b11 p
1l
b101110 /
b101110 4
b10000000000101110 2
b10000000000101110 #"
0("
1+
#600000
0+
#605000
b10 +"
1#
1$
0&
1'
0/"
b100 &"
b100 -"
b100 9"
b1000111 0
b1000111 %"
b1000111 7"
b1000111 1
b1000111 6
b111 5
b1 8"
b101111 /
b101111 4
b11111101 (
b11111101 3
b11111101 )"
b11111101 *"
b1 '"
b1 ,"
b1 6"
b10000000000101111 2
b10000000000101111 #"
1("
1+
#610000
0+
#615000
1r
0"
1$
1'
0."
0/"
10"
b100 &"
b100 -"
b100 9"
1}
0~
b100 7
0q
b10 !"
1Y
1w
b10 z
0v
1n
1V
1j
0]
1_
0s
b1 k
1O
b1 f
1b
0[
0m
1L
1S
0T
b10010100100110001 9
0`
0t
b11 M
b1001 W
b10 a
b100 u
b1001000 0
b1001000 %"
b1001000 7"
b1001000 1
b1001000 6
b1000 5
b11 H
1D
b110 R
0N
b10 \
0X
b100 p
0l
b110000 /
b110000 4
b10000000000110000 2
b10000000000110000 #"
0("
1+
#620000
0+
#625000
b11 +"
1!
0#
0$
0'
00"
b0 &"
b0 -"
b0 9"
b1001001 0
b1001001 %"
b1001001 7"
b1001001 1
b1001001 6
b1001 5
b10 8"
b110001 /
b110001 4
b11111011 (
b11111011 3
b11111011 )"
b11111011 *"
b10 '"
b10 ,"
b10 6"
b10000000000110001 2
b10000000000110001 #"
1("
1+
#630000
0+
#635000
b101 7
1q
0r
b1000 u
b1010000 0
b1010000 %"
b1010000 7"
b1010000 1
b1010000 6
b0 5
b101 p
1l
b110010 /
b110010 4
b10000000000110010 2
b10000000000110010 #"
0("
1+
#640000
0+
#645000
b0 +"
b1010001 0
b1010001 %"
b1010001 7"
b1010001 1
b1010001 6
b1 5
b11 8"
b110011 /
b110011 4
b11110111 (
b11110111 3
b11110111 )"
b11110111 *"
b11 '"
b11 ,"
b11 6"
b10000000000110011 2
b10000000000110011 #"
1("
1+
#650000
0+
#655000
1t
1m
b10011100100110001 9
1`
b101 7
1q
0r
b11 a
b1001 u
b1010010 0
b1010010 %"
b1010010 7"
b1010010 1
b1010010 6
b10 5
b11 \
1X
b110 p
0l
b110100 /
b110100 4
b10000000000110100 2
b10000000000110100 #"
0("
1+
#660000
0+
#665000
b1 +"
0!
1"
1#
1."
1/"
b11 &"
b11 -"
b11 9"
b1010011 0
b1010011 %"
b1010011 7"
b1010011 1
b1010011 6
b11 5
b0 8"
b110101 /
b110101 4
b11111110 (
b11111110 3
b11111110 )"
b11111110 *"
b0 '"
b0 ,"
b0 6"
b10000000000110101 2
b10000000000110101 #"
1("
1+
#670000
0+
#675000
0"
1$
1'
0/"
10"
1#
0%
0."
1s
0t
b100 &"
b100 -"
b100 9"
b1010 u
b1010100 0
b1010100 %"
b1010100 7"
b1010100 1
b1010100 6
b100 5
b111 p
1l
b110110 /
b110110 4
b10000000000110110 2
b10000000000110110 #"
0("
1+
#680000
0+
#685000
b10 +"
0$
1&
0'
1."
b101 &"
b101 -"
b101 9"
b1010101 0
b1010101 %"
b1010101 7"
b1010101 1
b1010101 6
b101 5
b1 8"
b110111 /
b110111 4
b11111101 (
b11111101 3
b11111101 )"
b11111101 *"
b1 '"
b1 ,"
b1 6"
b10000000000110111 2
b10000000000110111 #"
1("
1+
#690000
0+
#695000
0$
1&
0'
1."
1o
0n
b101 &"
b101 -"
b101 9"
1^
0_
b101 7
1q
0r
1Z
0Y
0m
1U
0V
b10100101000110001 9
0`
1s
1t
b1010 W
b100 a
b1011 u
b1010110 0
b1010110 %"
b1010110 7"
b1010110 1
b1010110 6
b110 5
b111 R
1N
b100 \
0X
b1000 p
0l
b111000 /
b111000 4
b10000000000111000 2
b10000000000111000 #"
0("
1+
#700000
0+
#705000
b11 +"
1!
0#
0&
0."
00"
b0 &"
b0 -"
b0 9"
b1010111 0
b1010111 %"
b1010111 7"
b1010111 1
b1010111 6
b111 5
b10 8"
b111001 /
b111001 4
b11111011 (
b11111011 3
b11111011 )"
b11111011 *"
b10 '"
b10 ,"
b10 6"
b10000000000111001 2
b10000000000111001 #"
1("
1+
#710000
0+
#715000
1r
0s
0t
b1100 u
b1011000 0
b1011000 %"
b1011000 7"
b1011000 1
b1011000 6
b1000 5
b1001 p
1l
b111010 /
b111010 4
b10000000000111010 2
b10000000000111010 #"
0("
1+
#720000
0+
#725000
b0 +"
b1011001 0
b1011001 %"
b1011001 7"
b1011001 1
b1011001 6
b1001 5
b11 8"
b111011 /
b111011 4
b11110111 (
b11110111 3
b11110111 )"
b11110111 *"
b11 '"
b11 ,"
b11 6"
b10000000000111011 2
b10000000000111011 #"
1("
1+
#730000
0+
#735000
1~
b110 7
0q
b11 !"
b11 z
1v
0o
1]
b11000101000110001 9
0^
0r
0s
0t
b1000 a
b0 u
b1100000 0
b1100000 %"
b1100000 7"
b1100000 1
b1100000 6
b0 5
b101 \
1X
b0 p
0l
b111100 /
b111100 4
b10000000000111100 2
b10000000000111100 #"
0("
1+
#740000
0+
#745000
b1 +"
1"
1#
1$
1'
1."
b1 &"
b1 -"
b1 9"
b1100001 0
b1100001 %"
b1100001 7"
b1100001 1
b1100001 6
b1 5
b0 8"
b111101 /
b111101 4
b11111110 (
b11111110 3
b11111110 )"
b11111110 *"
b0 '"
b0 ,"
b0 6"
b10000000000111101 2
b10000000000111101 #"
1("
1+
#750000
0+
#755000
0!
1%
1/"
1"
0#
0$
0'
0."
1t
b10 &"
b10 -"
b10 9"
b1 u
b1100010 0
b1100010 %"
b1100010 7"
b1100010 1
b1100010 6
b10 5
b1 p
1l
b111110 /
b111110 4
b10000000000111110 2
b10000000000111110 #"
0("
1+
#760000
0+
#765000
b10 +"
0"
0%
1&
10"
b110 &"
b110 -"
b110 9"
b1100011 0
b1100011 %"
b1100011 7"
b1100011 1
b1100011 6
b11 5
b1 8"
b111111 /
b111111 4
b11111101 (
b11111101 3
b11111101 )"
b11111101 *"
b1 '"
b1 ,"
b1 6"
b10000000000111111 2
b10000000000111111 #"
1("
1+
#770000
0+
